A158 A125 1
A158 A159 1
A158 A122 1
A158 A123 1
A158 A124 1
A158 A157 1
A159 A121 1
A159 A122 1
A159 A160 0.5
A159 A161 1
A234 A235 1
A234 A223 2
A234 A222 1
A234 A233 1
A235 A236 1
A235 A222 2
A139 A143 1
A139 A140 1
A139 A138 1
A139 A144 2
A139 A145 1
A138 A137 1
A138 A146 1
A138 A144 1
A138 A145 2
A230 A227 1
A230 A226 1
A230 A24 1
A230 A231 1
A230 A229 1
A231 A227 1
A231 A226 2
A231 A225 1
A231 A232 1
A232 A226 1
A232 A225 2
A232 A224 1
A232 A233 1
A233 A225 1
A233 A224 2
A233 A223 1
A133 A132 1
A133 A149 1
A133 A150 2
A133 A134 1
A132 A130 1
A132 A131 1
A132 A149 1
A132 A151 2
A132 A150 2
A131 A130 1
A131 A150 1
A131 A153 2
A131 A56 1
A130 A129 1
A130 A56 1
A130 A151 1
A130 A152 1
A238 A237 1
A238 A219 1
A238 A239 1
A238 A220 2
A239 A240 0.5
A239 A219 2
A135 A134 1
A135 A148 2
A135 A149 1
A135 A136 1
A135 A147 1
A134 A150 1
A134 A148 1
A134 A149 2
A134 A136 1
A79 A80 1
A79 A70 1
A79 A72 1
A79 A71 2
A79 A78 1
A78 A77 1
A78 A75 1
A78 A71 1
A78 A72 1
A77 A76 1
A77 A75 1
A76 A75 1
A76 A72 1
A75 A74 1
A74 A73 0.5
A73 A88 1
A73 A16 1
A73 A93 1
A73 A72 0.5
A72 A71 1
A71 A80 1
A71 A70 1
A70 A80 2
A70 A69 1
A106 A107 1
A106 A30 1
A106 A105 1
A106 A24 1
A106 A25 2
A107 A23 1
A107 A24 2
A107 A25 1
A107 A108 1
A107 A229 1
A104 A105 0.5
A104 A103 0.5
A105 A24 1
A105 A25 1
A105 A26 2
A105 A29 1
A105 A102 1
A105 A103 1
A102 A31 1
A102 A103 1
A102 A101 1
A102 A28 1
A102 A29 1
A103 A26 1
A100 A33 1
A100 A32 2
A100 A31 1
A100 A101 1
A100 A29 1
A100 A99 1
A101 A29 1
A101 A31 2
A108 A20 1
A108 A22 1
A108 A23 2
A108 A24 1
A108 A109 0.5
A109 A21 1
A109 A22 2
A109 A23 1
A109 A110 1
A227 A226 1
A227 A229 1
A227 A228 0.5
A226 A225 1
A225 A224 1
A224 A223 1
A223 A222 1
A222 A221 0.5
A221 A236 1
A221 A237 2
A221 A220 1
A220 A219 1
A220 A237 1
A229 A23 1
A229 A24 1
A229 A228 1
A228 A30 1
A68 A82 1
A68 A69 1
A68 A67 1
A68 A46 1
A68 A44 1
A68 A45 1
A68 A43 1
A69 A91 1
A69 A44 1
A69 A81 1
A64 A65 1
A64 A49 2
A64 A48 1
A64 A63 1
A65 A47 1
A65 A66 1
A65 A48 2
A66 A67 1
A66 A47 2
A67 A46 2
A67 A47 1
A67 A45 1
A60 A59 1
A60 A53 2
A60 A52 1
A60 A61 1
A60 A54 1
A236 A237 1
A62 A61 1
A62 A63 1
A62 A51 2
A62 A50 1
A62 A52 1
A62 A49 1
A63 A61 1
A63 A51 1
A63 A50 2
A63 A49 1
A111 A110 1
A111 A112 1
A111 A19 1
A111 A18 1
A110 A21 2
A113 A17 2
A113 A16 1
A113 A112 1
A113 A114 1
A112 A19 1
A112 A18 1
A115 A160 1
A115 A114 0.5
A115 A116 0.5
A114 A15 1
A114 A16 2
A114 A116 1
A114 A209 1
A117 A15 1
A117 A14 2
A117 A13 1
A117 A116 1
A117 A118 1
A117 A88 1
A117 A89 1
A117 A164 1
A117 A163 1
A116 A15 2
A116 A14 1
A116 A16 1
A116 A164 1
A119 A120 1
A119 A118 1
A119 A163 1
A119 A13 1
A119 A12 2
A118 A14 1
A118 A13 2
A118 A89 1
A118 A120 1
A243 A242 1
A243 A244 1
A61 A51 1
A61 A52 2
A51 A50 1
A51 A52 1
A50 A49 1
A53 A59 1
A53 A52 1
A53 A54 1
A55 A58 1
A55 A54 1
A55 A57 1
A55 A56 0.5
A54 A59 2
A54 A57 1
A57 A58 1
A57 A129 1
A57 A56 1
A56 A152 1
A59 A58 1
A58 A128 1
A58 A155 1
A58 A154 1
A218 A219 1
A218 A217 1
A218 A246 1
A244 A245 1
A247 A246 1
A247 A213 1
A247 A166 1
A247 A167 1
A247 A170 1
A247 A168 1
A247 A169 1
A137 A145 1
A137 A146 2
A137 A136 1
A137 A147 1
A85 A83 1
A85 A86 1
A85 A84 0.5
A85 A42 1
A85 A43 2
A85 A91 1
A157 A156 1
A157 A127 1
A157 A126 1
A157 A125 2
A136 A146 1
A136 A147 2
A188 A198 2
A188 A187 1
A188 A197 1
A188 A189 1
A189 A198 1
A189 A196 1
A189 A197 2
A189 A190 1
A186 A199 1
A186 A187 1
A186 A185 1
A186 A200 2
A187 A199 2
A187 A198 1
A184 A185 1
A184 A201 1
A184 A183 1
A184 A203 1
A184 A202 2
A185 A201 2
A185 A200 1
A185 A202 1
A182 A1 2
A182 A204 1
A182 A183 1
A182 A203 1
A182 A181 1
A183 A1 1
A183 A203 2
A183 A202 1
A180 A3 2
A180 A2 1
A180 A4 1
A180 A204 1
A180 A179 1
A180 A181 1
A181 A204 1
A181 A2 1
A241 A240 1
A241 A242 1
A212 A213 1
A212 A211 1
A212 A172 1
A212 A171 2
A212 A170 1
A46 A47 1
A46 A45 1
A47 A48 1
A44 A91 1
A44 A45 1
A44 A43 1
A45 A91 1
A160 A161 0.5
A43 A83 1
A43 A86 1
A43 A42 1
A93 A94 1
A93 A88 1
A93 A92 0.5
A163 A14 1
A163 A12 1
A163 A164 1
A163 A162 1
A205 A204 0.5
A205 A206 1
A204 A1 1
A204 A2 1
A204 A203 1
A207 A206 1
A207 A208 1
A201 A200 1
A201 A202 0.5
A200 A199 1
A48 A49 1
A164 A15 1
A164 A14 1
A164 A165 0.5
A164 A209 1
A165 A215 1
A165 A210 1
A165 A166 1
A165 A214 1
A165 A170 1
A165 A168 1
A165 A169 1
A213 A210 1
A213 A214 1
A213 A170 2
A213 A168 1
A213 A169 1
A166 A167 0.5
A166 A216 2
A166 A217 1
A166 A215 1
A166 A168 1
A199 A198 1
A198 A197 1
A208 A209 0.5
A167 A216 1
A167 A217 1
A167 A215 1
A167 A168 1
A42 A83 1
A42 A86 2
A42 A87 1
A42 A41 1
A191 A190 1
A191 A192 1
A209 A15 1
A209 A17 1
A209 A16 1
A209 A210 0.5
A193 A192 0.5
A193 A194 0.5
A195 A194 0.5
A195 A196 0.5
A194 A196 1
A197 A196 1
A197 A190 1
A40 A94 1
A40 A39 1
A40 A92 1
A40 A87 1
A40 A41 1
A41 A91 1
A41 A87 2
A41 A92 1
A177 A176 1
A177 A124 1
A177 A178 1
A177 A5 1
A177 A6 2
A176 A175 1
A176 A5 1
A176 A7 2
A176 A6 1
A176 A123 1
A176 A124 1
A175 A174 1
A174 A211 1
A174 A173 1
A173 A211 1
A173 A172 1
A172 A210 1
A172 A211 2
A172 A171 1
A171 A211 1
A171 A170 1
A170 A210 1
A170 A169 1
A179 A5 1
A179 A4 2
A179 A178 0.5
A178 A124 1
A178 A5 2
A178 A6 1
A33 A32 1
A33 A99 2
A33 A98 1
A33 A34 1
A32 A31 1
A32 A99 1
A31 A30 0.5
A31 A29 1
A30 A29 1
A30 A25 1
A37 A95 1
A37 A97 1
A37 A38 1
A37 A96 2
A37 A36 0.5
A36 A35 0.5
A36 A34 1
A36 A98 1
A36 A97 2
A36 A96 1
A35 A34 0.5
A34 A99 1
A34 A98 2
A34 A97 1
A34 A96 1
A168 A216 1
A168 A214 1
A168 A215 2
A168 A169 1
A39 A94 2
A39 A38 1
A39 A87 1
A39 A92 1
A38 A95 2
A38 A94 1
A38 A96 1
A169 A215 1
A169 A214 2
A203 A1 1
A203 A202 1
A245 A246 1
A142 A143 1
A142 A140 1
A142 A141 1
A143 A140 1
A143 A144 1
A140 A141 1
A140 A144 1
A146 A145 1
A146 A147 1
A147 A148 1
A144 A145 1
A148 A149 1
A149 A150 1
A20 A21 1
A20 A19 1
A21 A22 1
A22 A23 1
A23 A24 1
A24 A25 1
A25 A26 1
A26 A27 0.5
A26 A28 1
A26 A29 1
A27 A28 0.5
A28 A29 1
A210 A211 0.5
A161 A10 1
A161 A162 1
A161 A121 2
A161 A120 1
A161 A122 1
A216 A246 1
A216 A217 1
A216 A215 1
A217 A246 2
A214 A215 0.5
A162 A120 2
A162 A121 1
A162 A10 1
A95 A94 1
A95 A96 1
A99 A98 1
A98 A97 1
A94 A92 1
A155 A154 1
A155 A156 1
A155 A126 1
A155 A127 2
A154 A128 2
A154 A127 1
A154 A153 1
A154 A152 1
A97 A96 1
A151 A150 1
A151 A152 1
A153 A152 1
A152 A129 1
A15 A14 1
A15 A17 1
A15 A16 1
A15 A89 1
A14 A13 1
A17 A16 1
A17 A18 1
A16 A88 1
A11 A10 1
A11 A12 1
A10 A9 1
A10 A120 1
A13 A12 1
A13 A89 1
A91 A86 1
A91 A92 0.5
A91 A90 0.5
A91 A87 1
A19 A18 1
A90 A89 0.5
A1 A2 1
A3 A2 1
A3 A4 1
A5 A4 1
A5 A6 1
A7 A8 1
A7 A6 1
A6 A124 1
A9 A8 1
A92 A87 1
A82 A83 1
A82 A81 1
A83 A84 1
A80 A81 1
A86 A87 1
A87 A88 0.5
A88 A89 1
A128 A129 1
A128 A127 1
A120 A121 1
A121 A122 1
A122 A123 0.5
A123 A124 1
A124 A125 1
A125 A156 1
A125 A126 1
A126 A156 2
A126 A127 1
